[
	{
		"name": "id",
		"dbType": "increments",
		"htmlType": "number",
		"validations": "nullable",
		"searchable": false,
		"fillable": false,
		"primary": true,
		"inForm": false,
		"inIndex": false,
		"inView": false
	},
	{
		"name": "question",
		"dbType": "string",
		"htmlType": "text",
		"validations": "required|unique:faqs",
		"searchable": true,
		"fillable": true,
		"primary": false,
		"inForm": true,
		"inIndex": false,
		"inView": true
	},
	{
		"name": "response",
		"dbType": "longText",
		"htmlType": "textarea",
		"validations": "required",
		"searchable": true,
		"fillable": true,
		"primary": false,
		"inForm": true,
		"inIndex": true,
		"inView": true
	},
    {
		"name": "user_id",
		"dbType": "integer",
		"htmlType": "number",
		"validations": "nullable",
		"searchable": true,
		"fillable": true,
		"primary": false,
		"inForm": false,
		"inIndex": true,
		"inView": true
	},
    {
		"name": "ordre",
		"dbType": "integer",
		"htmlType": "number",
		"validations": "required",
		"searchable": true,
		"fillable": true,
		"primary": false,
		"inForm": true,
		"inIndex": false,
		"inView": true
	},
	{
		"name": "status",
		"dbType": "boolean",
		"htmlType": "radio",
		"validations": "required",
		"searchable": true,
		"fillable": true,
		"primary": false,
		"inForm": true,
		"inIndex": false,
		"inView": true
	},
	{
		"name": "created_at",
		"dbType": "timestamp",
		"htmlType": "date",
		"validations": "nullable",
		"searchable": true,
		"fillable": true,
		"primary": false,
		"inForm": false,
		"inIndex": false,
		"inView": true
	},
	{
		"name": "updated_at",
		"dbType": "timestamp",
		"htmlType": "date",
		"validations": "nullable",
		"searchable": true,
		"fillable": true,
		"primary": false,
		"inForm": false,
		"inIndex": false,
		"inView": false
	}
]
